%YAML 1.1
%TAG !u! tag:unity3d.com,2011:
--- !u!319 &31900000
AvatarMask:
  m_ObjectHideFlags: 0
  m_CorrespondingSourceObject: {fileID: 0}
  m_PrefabInstance: {fileID: 0}
  m_PrefabAsset: {fileID: 0}
  m_Name: Player Attack Mask
  m_Mask: 01000000010000000100000001000000010000000100000001000000010000000100000001000000010000000100000001000000
  m_Elements:
  - m_Path: 
    m_Weight: 1
  - m_Path: Mesh_005_Plane_010_Plane_001
    m_Weight: 0
  - m_Path: metarig_001
    m_Weight: 0
  - m_Path: metarig_001/hips
    m_Weight: 0
  - m_Path: metarig_001/hips/spine
    m_Weight: 1
  - m_Path: metarig_001/hips/spine/chest
    m_Weight: 1
  - m_Path: metarig_001/hips/spine/chest/neck
    m_Weight: 1
  - m_Path: metarig_001/hips/spine/chest/neck/head
    m_Weight: 1
  - m_Path: metarig_001/hips/spine/chest/shoulder_L
    m_Weight: 1
  - m_Path: metarig_001/hips/spine/chest/shoulder_L/upper_arm_L
    m_Weight: 1
  - m_Path: metarig_001/hips/spine/chest/shoulder_L/upper_arm_L/forearm_L
    m_Weight: 1
  - m_Path: metarig_001/hips/spine/chest/shoulder_L/upper_arm_L/forearm_L/hand_L
    m_Weight: 1
  - m_Path: metarig_001/hips/spine/chest/shoulder_L/upper_arm_L/forearm_L/hand_L/palm_01_L
    m_Weight: 1
  - m_Path: metarig_001/hips/spine/chest/shoulder_L/upper_arm_L/forearm_L/hand_L/palm_01_L/f_index_01_L
    m_Weight: 1
  - m_Path: metarig_001/hips/spine/chest/shoulder_L/upper_arm_L/forearm_L/hand_L/palm_01_L/f_index_01_L/f_index_02_L
    m_Weight: 1
  - m_Path: metarig_001/hips/spine/chest/shoulder_L/upper_arm_L/forearm_L/hand_L/palm_01_L/f_index_01_L/f_index_02_L/f_index_03_L
    m_Weight: 1
  - m_Path: metarig_001/hips/spine/chest/shoulder_L/upper_arm_L/forearm_L/hand_L/palm_01_L/thumb_01_L
    m_Weight: 1
  - m_Path: metarig_001/hips/spine/chest/shoulder_L/upper_arm_L/forearm_L/hand_L/palm_01_L/thumb_01_L/thumb_02_L
    m_Weight: 1
  - m_Path: metarig_001/hips/spine/chest/shoulder_L/upper_arm_L/forearm_L/hand_L/palm_01_L/thumb_01_L/thumb_02_L/thumb_03_L
    m_Weight: 1
  - m_Path: metarig_001/hips/spine/chest/shoulder_L/upper_arm_L/forearm_L/hand_L/palm_02_L
    m_Weight: 1
  - m_Path: metarig_001/hips/spine/chest/shoulder_L/upper_arm_L/forearm_L/hand_L/palm_02_L/f_middle_01_L
    m_Weight: 1
  - m_Path: metarig_001/hips/spine/chest/shoulder_L/upper_arm_L/forearm_L/hand_L/palm_02_L/f_middle_01_L/f_middle_02_L
    m_Weight: 1
  - m_Path: metarig_001/hips/spine/chest/shoulder_L/upper_arm_L/forearm_L/hand_L/palm_02_L/f_middle_01_L/f_middle_02_L/f_middle_03_L
    m_Weight: 1
  - m_Path: metarig_001/hips/spine/chest/shoulder_L/upper_arm_L/forearm_L/hand_L/palm_03_L
    m_Weight: 1
  - m_Path: metarig_001/hips/spine/chest/shoulder_L/upper_arm_L/forearm_L/hand_L/palm_03_L/f_ring_01_L
    m_Weight: 1
  - m_Path: metarig_001/hips/spine/chest/shoulder_L/upper_arm_L/forearm_L/hand_L/palm_03_L/f_ring_01_L/f_ring_02_L
    m_Weight: 1
  - m_Path: metarig_001/hips/spine/chest/shoulder_L/upper_arm_L/forearm_L/hand_L/palm_03_L/f_ring_01_L/f_ring_02_L/f_ring_03_L
    m_Weight: 1
  - m_Path: metarig_001/hips/spine/chest/shoulder_L/upper_arm_L/forearm_L/hand_L/palm_04_L
    m_Weight: 1
  - m_Path: metarig_001/hips/spine/chest/shoulder_L/upper_arm_L/forearm_L/hand_L/palm_04_L/f_pinky_01_L
    m_Weight: 1
  - m_Path: metarig_001/hips/spine/chest/shoulder_L/upper_arm_L/forearm_L/hand_L/palm_04_L/f_pinky_01_L/f_pinky_02_L
    m_Weight: 1
  - m_Path: metarig_001/hips/spine/chest/shoulder_L/upper_arm_L/forearm_L/hand_L/palm_04_L/f_pinky_01_L/f_pinky_02_L/f_pinky_03_L
    m_Weight: 1
  - m_Path: metarig_001/hips/spine/chest/shoulder_R
    m_Weight: 1
  - m_Path: metarig_001/hips/spine/chest/shoulder_R/upper_arm_R
    m_Weight: 1
  - m_Path: metarig_001/hips/spine/chest/shoulder_R/upper_arm_R/forearm_R
    m_Weight: 1
  - m_Path: metarig_001/hips/spine/chest/shoulder_R/upper_arm_R/forearm_R/hand_R
    m_Weight: 1
  - m_Path: metarig_001/hips/spine/chest/shoulder_R/upper_arm_R/forearm_R/hand_R/palm_01_R
    m_Weight: 1
  - m_Path: metarig_001/hips/spine/chest/shoulder_R/upper_arm_R/forearm_R/hand_R/palm_01_R/f_index_01_R
    m_Weight: 1
  - m_Path: metarig_001/hips/spine/chest/shoulder_R/upper_arm_R/forearm_R/hand_R/palm_01_R/f_index_01_R/f_index_02_R
    m_Weight: 1
  - m_Path: metarig_001/hips/spine/chest/shoulder_R/upper_arm_R/forearm_R/hand_R/palm_01_R/f_index_01_R/f_index_02_R/f_index_03_R
    m_Weight: 1
  - m_Path: metarig_001/hips/spine/chest/shoulder_R/upper_arm_R/forearm_R/hand_R/palm_01_R/thumb_01_R
    m_Weight: 1
  - m_Path: metarig_001/hips/spine/chest/shoulder_R/upper_arm_R/forearm_R/hand_R/palm_01_R/thumb_01_R/thumb_02_R
    m_Weight: 1
  - m_Path: metarig_001/hips/spine/chest/shoulder_R/upper_arm_R/forearm_R/hand_R/palm_01_R/thumb_01_R/thumb_02_R/thumb_03_R
    m_Weight: 1
  - m_Path: metarig_001/hips/spine/chest/shoulder_R/upper_arm_R/forearm_R/hand_R/palm_02_R
    m_Weight: 1
  - m_Path: metarig_001/hips/spine/chest/shoulder_R/upper_arm_R/forearm_R/hand_R/palm_02_R/f_middle_01_R
    m_Weight: 1
  - m_Path: metarig_001/hips/spine/chest/shoulder_R/upper_arm_R/forearm_R/hand_R/palm_02_R/f_middle_01_R/f_middle_02_R
    m_Weight: 1
  - m_Path: metarig_001/hips/spine/chest/shoulder_R/upper_arm_R/forearm_R/hand_R/palm_02_R/f_middle_01_R/f_middle_02_R/f_middle_03_R
    m_Weight: 1
  - m_Path: metarig_001/hips/spine/chest/shoulder_R/upper_arm_R/forearm_R/hand_R/palm_03_R
    m_Weight: 1
  - m_Path: metarig_001/hips/spine/chest/shoulder_R/upper_arm_R/forearm_R/hand_R/palm_03_R/f_ring_01_R
    m_Weight: 1
  - m_Path: metarig_001/hips/spine/chest/shoulder_R/upper_arm_R/forearm_R/hand_R/palm_03_R/f_ring_01_R/f_ring_02_R
    m_Weight: 1
  - m_Path: metarig_001/hips/spine/chest/shoulder_R/upper_arm_R/forearm_R/hand_R/palm_03_R/f_ring_01_R/f_ring_02_R/f_ring_03_R
    m_Weight: 1
  - m_Path: metarig_001/hips/spine/chest/shoulder_R/upper_arm_R/forearm_R/hand_R/palm_04_R
    m_Weight: 1
  - m_Path: metarig_001/hips/spine/chest/shoulder_R/upper_arm_R/forearm_R/hand_R/palm_04_R/f_pinky_01_R
    m_Weight: 1
  - m_Path: metarig_001/hips/spine/chest/shoulder_R/upper_arm_R/forearm_R/hand_R/palm_04_R/f_pinky_01_R/f_pinky_02_R
    m_Weight: 1
  - m_Path: metarig_001/hips/spine/chest/shoulder_R/upper_arm_R/forearm_R/hand_R/palm_04_R/f_pinky_01_R/f_pinky_02_R/f_pinky_03_R
    m_Weight: 1
  - m_Path: metarig_001/hips/thigh_L
    m_Weight: 0
  - m_Path: metarig_001/hips/thigh_L/shin_L
    m_Weight: 0
  - m_Path: metarig_001/hips/thigh_L/shin_L/foot_L
    m_Weight: 0
  - m_Path: metarig_001/hips/thigh_L/shin_L/foot_L/toe_L
    m_Weight: 0
  - m_Path: metarig_001/hips/thigh_L/shin_L/heel_L
    m_Weight: 0
  - m_Path: metarig_001/hips/thigh_L/shin_L/heel_L/heel_02_L
    m_Weight: 0
  - m_Path: metarig_001/hips/thigh_R
    m_Weight: 0
  - m_Path: metarig_001/hips/thigh_R/shin_R
    m_Weight: 0
  - m_Path: metarig_001/hips/thigh_R/shin_R/foot_R
    m_Weight: 0
  - m_Path: metarig_001/hips/thigh_R/shin_R/foot_R/toe_R
    m_Weight: 0
  - m_Path: metarig_001/hips/thigh_R/shin_R/heel_R
    m_Weight: 0
  - m_Path: metarig_001/hips/thigh_R/shin_R/heel_R/heel_02_R
    m_Weight: 0
  - m_Path: Plane_000
    m_Weight: 0
  - m_Path: Plane_001
    m_Weight: 0
  - m_Path: Plane_003
    m_Weight: 0
  - m_Path: wood
    m_Weight: 0
